##FastQC	0.11.4
>>Basic Statistics	pass
#Measure	Value
Filename	Sample_1_1.fastq.gz
File type	Conventional base calls
Encoding	Sanger / Illumina 1.9
Total Sequences	30000
Sequences flagged as poor quality	0
Sequence length	150-302
%GC	51
>>END_MODULE
>>Per base sequence quality	pass
#Base	Mean	Median	Lower Quartile	Upper Quartile	10th Percentile	90th Percentile
1	30.0	30.0	30.0	30.0	30.0	30.0
2	30.0	30.0	30.0	30.0	30.0	30.0
3	30.0	30.0	30.0	30.0	30.0	30.0
4	29.994666666666667	30.0	30.0	30.0	30.0	30.0
5	29.995333333333335	30.0	30.0	30.0	30.0	30.0
6	29.994666666666667	30.0	30.0	30.0	30.0	30.0
7	29.991333333333333	30.0	30.0	30.0	30.0	30.0
8	29.992	30.0	30.0	30.0	30.0	30.0
9	29.997333333333334	30.0	30.0	30.0	30.0	30.0
10-14	29.988533333333333	30.0	30.0	30.0	30.0	30.0
15-19	29.984799999999996	30.0	30.0	30.0	30.0	30.0
20-24	29.98346666666667	30.0	30.0	30.0	30.0	30.0
25-29	29.9812	30.0	30.0	30.0	30.0	30.0
30-34	29.976266666666664	30.0	30.0	30.0	30.0	30.0
35-39	29.969466666666666	30.0	30.0	30.0	30.0	30.0
40-44	29.964533333333332	30.0	30.0	30.0	30.0	30.0
45-49	29.957866666666668	30.0	30.0	30.0	30.0	30.0
50-54	29.956400000000002	30.0	30.0	30.0	30.0	30.0
55-59	29.955466666666666	30.0	30.0	30.0	30.0	30.0
60-64	29.9464	30.0	30.0	30.0	30.0	30.0
65-69	29.940800000000003	30.0	30.0	30.0	30.0	30.0
70-74	29.939600000000002	30.0	30.0	30.0	30.0	30.0
75-79	29.936266666666665	30.0	30.0	30.0	30.0	30.0
80-84	29.935066666666664	30.0	30.0	30.0	30.0	30.0
85-89	29.929199999999998	30.0	30.0	30.0	30.0	30.0
90-94	29.91893333333333	30.0	30.0	30.0	30.0	30.0
95-99	29.920666666666666	30.0	30.0	30.0	30.0	30.0
100-104	29.915066666666668	30.0	30.0	30.0	30.0	30.0
105-109	29.91293333333333	30.0	30.0	30.0	30.0	30.0
110-114	29.905733333333337	30.0	30.0	30.0	30.0	30.0
115-119	29.907866666666667	30.0	30.0	30.0	30.0	30.0
120-124	29.896133333333335	30.0	30.0	30.0	30.0	30.0
125-129	29.89626666666667	30.0	30.0	30.0	30.0	30.0
130-134	29.887333333333334	30.0	30.0	30.0	30.0	30.0
135-139	29.8804	30.0	30.0	30.0	30.0	30.0
140-144	29.8844	30.0	30.0	30.0	30.0	30.0
145-149	29.873066666666666	30.0	30.0	30.0	30.0	30.0
150-154	29.8805294891826	30.0	30.0	30.0	30.0	30.0
155-159	29.87525925925926	30.0	30.0	30.0	30.0	30.0
160-164	29.870666666666665	30.0	30.0	30.0	30.0	30.0
165-169	29.87985185185185	30.0	30.0	30.0	30.0	30.0
170-174	29.873925925925924	30.0	30.0	30.0	30.0	30.0
175-179	29.866222222222223	30.0	30.0	30.0	30.0	30.0
180-184	29.8597037037037	30.0	30.0	30.0	30.0	30.0
185-189	29.85585185185185	30.0	30.0	30.0	30.0	30.0
190-194	29.84088888888889	30.0	30.0	30.0	30.0	30.0
195-199	29.85274074074074	30.0	30.0	30.0	30.0	30.0
200-204	29.844592592592598	30.0	30.0	30.0	30.0	30.0
205-209	29.83837037037037	30.0	30.0	30.0	30.0	30.0
210-214	29.84474074074074	30.0	30.0	30.0	30.0	30.0
215-219	29.83511111111111	30.0	30.0	30.0	30.0	30.0
220-224	29.829333333333334	30.0	30.0	30.0	30.0	30.0
225-229	29.826666666666664	30.0	30.0	30.0	30.0	30.0
230-234	29.83214814814815	30.0	30.0	30.0	30.0	30.0
235-239	29.82380825748723	30.0	30.0	30.0	30.0	30.0
240-244	29.815777777777775	30.0	30.0	30.0	30.0	30.0
245-249	29.816770327737807	30.0	30.0	30.0	30.0	30.0
250-254	29.833333333333332	30.0	30.0	30.0	30.0	30.0
255-259	29.817333333333334	30.0	30.0	30.0	30.0	30.0
260-264	29.824444444444442	30.0	30.0	30.0	30.0	30.0
265-269	29.82133333333333	30.0	30.0	30.0	30.0	30.0
270-274	29.821777777777783	30.0	30.0	30.0	30.0	30.0
275-279	29.80888888888889	30.0	30.0	30.0	30.0	30.0
280-284	29.81111111111111	30.0	30.0	30.0	30.0	30.0
285-289	29.808444444444444	30.0	30.0	30.0	30.0	30.0
290-294	29.808444444444444	30.0	30.0	30.0	30.0	30.0
295-299	29.78622222222222	30.0	30.0	30.0	30.0	30.0
300-302	29.839799876791247	30.0	30.0	30.0	30.0	30.0
>>END_MODULE
>>Per sequence quality scores	pass
#Quality	Count
29	27761.0
30	2239.0
>>END_MODULE
>>Per base sequence content	fail
#Base	G	A	T	C
1	30.0	0.0	0.0	70.0
2	10.0	30.0	30.0	30.0
3	0.0	30.0	30.0	40.0
4	30.00333333333333	0.0033333333333333335	69.98666666666666	0.006666666666666667
5	69.98333333333333	0.006666666666666667	0.0033333333333333335	30.006666666666664
6	69.99	29.99	0.013333333333333334	0.006666666666666667
7	0.02	39.986666666666665	29.983333333333334	30.009999999999998
8	0.013333333333333334	39.989999999999995	30.00333333333333	29.993333333333332
9	59.99333333333333	0.006666666666666667	10.006666666666666	29.993333333333332
10-14	25.997333333333334	31.99533333333333	16.007333333333335	26.0
15-19	20.00133333333333	27.988666666666667	37.99333333333333	14.016666666666666
20-24	28.002	16.003333333333334	43.980000000000004	12.014666666666667
25-29	29.992	27.999333333333333	21.996666666666666	20.012
30-34	25.998666666666665	18.002666666666666	39.973333333333336	16.025333333333332
35-39	45.94866666666667	20.01533333333333	20.01	14.026
40-44	37.97533333333333	45.94	2.0533333333333332	14.031333333333334
45-49	20.028666666666666	23.97866666666667	14.038	41.95466666666667
50-54	18.026666666666667	45.934666666666665	10.042	25.99666666666667
55-59	18.026	29.977333333333334	24.008	27.988666666666667
60-64	21.999333333333336	31.977333333333334	20.012666666666668	26.010666666666665
65-69	39.93	22.009333333333334	12.053333333333335	26.00733333333333
70-74	27.987333333333332	29.983333333333334	22.014	20.01533333333333
75-79	20.013333333333332	22.004666666666665	43.919999999999995	14.062
80-84	35.97266666666666	29.967333333333336	14.05	20.01
85-89	31.979333333333333	27.967333333333332	14.057333333333332	25.996000000000002
90-94	20.044666666666664	18.04266666666667	51.84466666666666	10.068000000000001
95-99	33.94666666666667	20.010666666666665	8.086	37.95666666666666
100-104	14.076	35.925333333333334	27.979333333333333	22.019333333333332
105-109	45.879999999999995	8.093333333333334	20.028000000000002	25.998666666666665
110-114	27.964666666666666	24.026666666666667	24.0	24.008666666666667
115-119	31.944	35.90133333333333	12.108666666666666	20.046
120-124	18.108666666666668	23.988666666666667	37.86466666666667	20.038
125-129	41.851333333333336	10.113999999999999	33.94066666666667	14.094000000000001
130-134	20.06533333333333	14.055333333333333	30.020666666666667	35.858666666666664
135-139	43.848	21.990000000000002	20.032666666666664	14.129333333333333
140-144	16.073999999999998	10.141333333333332	43.84133333333333	29.94333333333333
145-149	20.080000000000002	29.996000000000002	37.862	12.062000000000001
150-154	23.416599287912963	19.20649105635701	19.201526306083945	38.17538334964608
155-159	53.087407407407404	6.797777777777777	20.051111111111112	20.063703703703702
160-164	26.58	13.485185185185186	26.651851851851855	33.28296296296296
165-169	20.062962962962963	19.98962962962963	46.49037037037037	13.457037037037036
170-174	39.894814814814815	26.623703703703704	20.043703703703702	13.437777777777779
175-179	20.119999999999997	39.85851851851852	13.40074074074074	26.62074074074074
180-184	20.062962962962963	26.622962962962966	33.21259259259259	20.101481481481482
185-189	33.28814814814815	26.610370370370372	13.46074074074074	26.640740740740743
190-194	13.436296296296296	20.128888888888888	39.84962962962963	26.585185185185185
195-199	39.83851851851852	20.074074074074076	33.23555555555556	6.851851851851852
200-204	33.245925925925924	13.453333333333333	20.132592592592594	33.16814814814815
205-209	46.44444444444444	13.474814814814815	39.760740740740744	0.32
210-214	20.128888888888888	39.772592592592595	20.084444444444443	20.014074074074074
215-219	33.1762962962963	26.681481481481484	26.682222222222222	13.459999999999999
220-224	33.1562962962963	26.66	20.06888888888889	20.114814814814817
225-229	26.797777777777775	26.56222222222222	33.17777777777778	13.462222222222223
230-234	59.52444444444445	6.925185185185185	13.491851851851852	20.058518518518518
235-239	15.600721361355884	45.890206066614816	30.64674660900334	7.862325963025957
240-244	49.52111111111111	20.06888888888889	0.41222222222222227	29.997777777777777
245-249	14.443774207886214	56.70201282621119	28.422439519969522	0.43177344593307515
250-254	39.95111111111111	39.74666666666667	0.3933333333333333	19.90888888888889
255-259	39.67777777777778	40.07333333333333	0.3	19.948888888888888
260-264	0.2644444444444444	59.36	0.4444444444444444	39.931111111111115
265-269	59.46444444444444	0.5777777777777777	19.88888888888889	20.06888888888889
270-274	39.91777777777778	39.80888888888889	0.29111111111111115	19.982222222222223
275-279	39.84666666666667	19.915555555555557	20.202222222222222	20.035555555555558
280-284	39.824444444444445	0.29555555555555557	39.72666666666667	20.153333333333336
285-289	39.71333333333333	20.224444444444444	19.948888888888888	20.113333333333333
290-294	19.939999999999998	39.81333333333333	20.22888888888889	20.01777777777778
295-299	20.433333333333334	19.891111111111112	19.90888888888889	39.766666666666666
300-302	98.02222222222223	0.2777777777777778	1.3666666666666667	0.33333333333333337
>>END_MODULE
>>Per sequence GC content	fail
#GC Content	Count
0	0.0
1	0.0
2	0.0
3	0.0
4	0.0
5	0.0
6	0.0
7	0.0
8	0.0
9	0.0
10	0.0
11	0.0
12	0.0
13	0.0
14	0.0
15	0.0
16	0.0
17	0.0
18	0.0
19	0.0
20	0.0
21	0.0
22	0.0
23	0.0
24	0.0
25	0.0
26	0.0
27	0.0
28	0.0
29	0.0
30	0.0
31	0.0
32	0.0
33	0.0
34	0.0
35	0.0
36	0.0
37	0.0
38	0.0
39	0.0
40	0.0
41	0.0
42	34.99999999999997
43	2245.9999999999036
44	2410.666666666645
45	51.00000000000008
46	154.0
47	1309.5
48	1345.5
49	189.5
50	0.5
51	0.0
52	725.0000000000125
53	2917.333333333542
54	684.6666666666746
55	4.0
56	1606.5
57	1420.3333333333321
58	10.833333333333334
59	0.0
60	0.0
61	0.0
62	0.0
63	0.0
64	0.0
65	0.0
66	0.0
67	0.0
68	0.0
69	0.0
70	0.0
71	0.0
72	0.0
73	0.0
74	0.0
75	0.0
76	0.0
77	0.0
78	0.0
79	0.0
80	0.0
81	0.0
82	0.0
83	0.0
84	0.0
85	0.0
86	0.0
87	0.0
88	0.0
89	0.0
90	0.0
91	0.0
92	0.0
93	0.0
94	0.0
95	0.0
96	0.0
97	0.0
98	0.0
99	0.0
100	0.0
>>END_MODULE
>>Per base N content	pass
#Base	N-Count
1	0.0
2	0.0
3	0.0
4	0.0
5	0.0
6	0.0
7	0.0
8	0.0
9	0.0
10-14	0.0
15-19	0.0
20-24	0.0
25-29	0.0
30-34	0.0
35-39	0.0
40-44	0.0
45-49	0.0
50-54	0.0
55-59	0.0
60-64	0.0
65-69	0.0
70-74	0.0
75-79	0.0
80-84	0.0
85-89	0.0
90-94	0.0
95-99	0.0
100-104	0.0
105-109	0.0
110-114	0.0
115-119	0.0
120-124	0.0
125-129	0.0
130-134	0.0
135-139	0.0
140-144	0.0
145-149	0.0
150-154	0.0
155-159	0.0
160-164	0.0
165-169	0.0
170-174	0.0
175-179	0.0
180-184	0.0
185-189	0.0
190-194	0.0
195-199	0.0
200-204	0.0
205-209	0.0
210-214	0.0
215-219	0.0
220-224	0.0
225-229	0.0
230-234	0.0
235-239	0.0
240-244	0.0
245-249	0.0
250-254	0.0
255-259	0.0
260-264	0.0
265-269	0.0
270-274	0.0
275-279	0.0
280-284	0.0
285-289	0.0
290-294	0.0
295-299	0.0
300-302	0.0
>>END_MODULE
>>Sequence Length Distribution	warn
#Length	Count
150-154	3000.0
155-159	0.0
160-164	0.0
165-169	0.0
170-174	0.0
175-179	0.0
180-184	0.0
185-189	0.0
190-194	0.0
195-199	0.0
200-204	0.0
205-209	0.0
210-214	0.0
215-219	0.0
220-224	0.0
225-229	0.0
230-234	0.0
235-239	9000.0
240-244	0.0
245-249	9000.0
250-254	0.0
255-259	0.0
260-264	0.0
265-269	0.0
270-274	0.0
275-279	0.0
280-284	0.0
285-289	0.0
290-294	0.0
295-299	79.0
300-303	8921.0
>>END_MODULE
>>Sequence Duplication Levels	fail
#Total Deduplicated Percentage	1.6666666666666667
#Duplication Level	Percentage of deduplicated	Percentage of total
1	26.8	0.44666666666666666
2	21.6	0.72
3	15.0	0.75
4	13.200000000000001	0.88
5	6.800000000000001	0.5666666666666667
6	7.6	0.76
7	4.3999999999999995	0.5133333333333333
8	1.4000000000000001	0.18666666666666668
9	1.2	0.18
>10	1.2	0.2033333333333333
>50	0.0	0.0
>100	0.0	0.0
>500	0.0	0.0
>1k	0.2	9.206666666666667
>5k	0.6	85.58666666666667
>10k+	0.0	0.0
>>END_MODULE
>>Overrepresented sequences	fail
#Sequence	Count	Percentage	Possible Source
CTAGGGACGAAGCCTTATGGTGACGGTACCTGGAGAAGAAGCACCGGCTA	8619	28.73	No Hit
CCCTGACACGCTAAATACTTTATTTAGAAATTCTGGGGCAAAAGACAACG	8536	28.453333333333337	No Hit
GATTCGTTGTGGACGCTAGGCTTGTCGGCAGTGTCTTTGGGGGACGTCCC	8521	28.403333333333336	No Hit
CGCTGGAATGATCTCGTAATAGGACATATTGCCTCGGATATGACTGAAAA	2762	9.206666666666667	No Hit
>>END_MODULE
>>Adapter Content	pass
#Position	Illumina Universal Adapter	Illumina Small RNA Adapter	Nextera Transposase Sequence	SOLID Small RNA Adapter
1	0.0	0.0	0.0	0.0
2	0.0	0.0	0.0	0.0
3	0.0	0.0	0.0	0.0
4	0.0	0.0	0.0	0.0
5	0.0	0.0	0.0	0.0
6	0.0	0.0	0.0	0.0
7	0.0	0.0	0.0	0.0
8	0.0	0.0	0.0	0.0
9	0.0	0.0	0.0	0.0
10-14	0.0	0.0	0.0	0.0
15-19	0.0	0.0	0.0	0.0
20-24	0.0	0.0	0.0	0.0
25-29	0.0	0.0	0.0	0.0
30-34	0.0	0.0	0.0	0.0
35-39	0.0	0.0	0.0	0.0
40-44	0.0	0.0	0.0	0.0
45-49	0.0	0.0	0.0	0.0
50-54	0.0	0.0	0.0	0.0
55-59	0.0	0.0	0.0	0.0
60-64	0.0	0.0	0.0	0.0
65-69	0.0	0.0	0.0	0.0
70-74	0.0	0.0	0.0	0.0
75-79	0.0	0.0	0.0	0.0
80-84	0.0	0.0	0.0	0.0
85-89	0.0	0.0	0.0	0.0
90-94	0.0	0.0	0.0	0.0
95-99	0.0	0.0	0.0	0.0
100-104	0.0	0.0	0.0	0.0
105-109	0.0	0.0	0.0	0.0
110-114	0.0	0.0	0.0	0.0
115-119	0.0	0.0	0.0	0.0
120-124	0.0	0.0	0.0	0.0
125-129	0.0	0.0	0.0	0.0
130-134	0.0	0.0	0.0	0.0
135-139	0.0	0.0	0.0	0.0
140-144	0.0	0.0	0.0	0.0
145-149	0.0	0.0	0.0	0.0
150-154	0.0	0.0	0.0	0.0
155-159	0.0	0.0	0.0	0.0
160-164	0.0	0.0	0.0	0.0
165-169	0.0	0.0	0.0	0.0
170-174	0.0	0.0	0.0	0.0
175-179	0.0	0.0	0.0	0.0
180-184	0.0	0.0	0.0	0.0
185-189	0.0	0.0	0.0	0.0
190-194	0.0	0.0	0.0	0.0
195-199	0.0	0.0	0.0	0.0
200-204	0.0	0.0	0.0	0.0
205-209	0.0	0.0	0.0	0.0
210-214	0.0	0.0	0.0	0.0
215-219	0.0	0.0	0.0	0.0
220-224	0.0	0.0	0.0	0.0
225-229	0.0	0.0	0.0	0.0
230-234	0.0	0.0	0.0	0.0
235-239	0.0	0.0	0.0	0.0
240-244	0.0	0.0	0.0	0.0
245-249	0.0	0.0	0.0	0.0
250-254	0.0	0.0	0.0	0.0
255-259	0.0	0.0	0.0	0.0
260-264	0.0	0.0	0.0	0.0
265-269	0.0	0.0	0.0	0.0
270-274	0.0	0.0	0.0	0.0
275-279	0.0	0.0	0.0	0.0
280-284	0.0	0.0	0.0	0.0
285-289	0.0	0.0	0.0	0.0
290	0.0	0.0	0.0	0.0
>>END_MODULE
>>Kmer Content	fail
#Sequence	Count	PValue	Obs/Exp Max	Max Obs/Exp Position
GACGCTG	830	0.0	881.9096	295
GATATCA	870	0.0	799.29395	245-249
GGACCAA	10	3.182906E-4	407.7911	240-244
TGACGAA	10	3.182906E-4	407.7911	240-244
CAAATGG	15	0.0010812682	271.10556	260-264
AGGAGGG	15	0.0010812682	271.10556	250-254
ACTGACG	860	0.0	269.52936	290-294
TTCGTTG	900	0.0	243.99501	3
CTAGGGA	900	0.0	243.99501	1
AGGGACG	900	0.0	243.99501	3
ATTCGTT	900	0.0	243.99501	2
CCCTGAC	900	0.0	243.99501	1
TCGTTGT	900	0.0	243.99501	4
GATTCGT	900	0.0	243.99501	1
GACGAAG	900	0.0	243.99501	6
TGTGGAC	900	0.0	243.99501	8
CGTTGTG	900	0.0	243.99501	5
TAGGGAC	900	0.0	243.99501	2
ACGAAGC	900	0.0	243.99501	7
GTGGACG	900	0.0	243.99501	9
>>END_MODULE
